%YAML 1.1
%TAG !u! tag:unity3d.com,2011:
--- !u!29 &1
SceneSettings:
  m_ObjectHideFlags: 0
  m_PVSData: 
  m_PVSObjectsArray: []
  m_PVSPortalsArray: []
  m_OcclusionBakeSettings:
    smallestOccluder: 5
    smallestHole: .25
    backfaceThreshold: 100
--- !u!104 &2
RenderSettings:
  m_ObjectHideFlags: 0
  serializedVersion: 6
  m_Fog: 0
  m_FogColor: {r: .5, g: .5, b: .5, a: 1}
  m_FogMode: 3
  m_FogDensity: .00999999978
  m_LinearFogStart: 0
  m_LinearFogEnd: 300
  m_AmbientSkyColor: {r: .211999997, g: .226999998, b: .259000003, a: 1}
  m_AmbientEquatorColor: {r: .114, g: .125, b: .133000001, a: 1}
  m_AmbientGroundColor: {r: .0469999984, g: .0430000015, b: .0350000001, a: 1}
  m_AmbientIntensity: 1
  m_AmbientMode: 3
  m_SkyboxMaterial: {fileID: 0}
  m_HaloStrength: .5
  m_FlareStrength: 1
  m_FlareFadeSpeed: 3
  m_HaloTexture: {fileID: 0}
  m_SpotCookie: {fileID: 10001, guid: 0000000000000000e000000000000000, type: 0}
  m_DefaultReflectionMode: 0
  m_DefaultReflectionResolution: 128
  m_ReflectionBounces: 1
  m_ReflectionIntensity: 1
  m_CustomReflection: {fileID: 0}
  m_Sun: {fileID: 0}
--- !u!157 &3
LightmapSettings:
  m_ObjectHideFlags: 0
  serializedVersion: 5
  m_GIWorkflowMode: 1
  m_LightmapsMode: 1
  m_GISettings:
    serializedVersion: 2
    m_BounceScale: 1
    m_IndirectOutputScale: 1
    m_AlbedoBoost: 1
    m_TemporalCoherenceThreshold: 1
    m_EnvironmentLightingMode: 0
    m_EnableBakedLightmaps: 0
    m_EnableRealtimeLightmaps: 0
  m_LightmapEditorSettings:
    serializedVersion: 3
    m_Resolution: 2
    m_BakeResolution: 40
    m_TextureWidth: 1024
    m_TextureHeight: 1024
    m_AOMaxDistance: 1
    m_Padding: 2
    m_CompAOExponent: 0
    m_LightmapParameters: {fileID: 0}
    m_TextureCompression: 1
    m_FinalGather: 0
    m_FinalGatherRayCount: 1024
    m_ReflectionCompression: 2
  m_LightmapSnapshot: {fileID: 0}
  m_RuntimeCPUUsage: 25
--- !u!196 &4
NavMeshSettings:
  serializedVersion: 2
  m_ObjectHideFlags: 0
  m_BuildSettings:
    serializedVersion: 2
    agentRadius: .5
    agentHeight: 2
    agentSlope: 45
    agentClimb: .400000006
    ledgeDropHeight: 0
    maxJumpAcrossDistance: 0
    accuratePlacement: 0
    minRegionArea: 2
    cellSize: .166666672
    manualCellSize: 0
  m_NavMeshData: {fileID: 0}
--- !u!1 &1004511277
GameObject:
  m_ObjectHideFlags: 0
  m_PrefabParentObject: {fileID: 0}
  m_PrefabInternal: {fileID: 0}
  serializedVersion: 4
  m_Component:
  - 4: {fileID: 1004511281}
  - 33: {fileID: 1004511280}
  - 65: {fileID: 1004511279}
  - 23: {fileID: 1004511278}
  m_Layer: 0
  m_Name: Cube
  m_TagString: Untagged
  m_Icon: {fileID: 0}
  m_NavMeshLayer: 0
  m_StaticEditorFlags: 0
  m_IsActive: 1
--- !u!23 &1004511278
MeshRenderer:
  m_ObjectHideFlags: 0
  m_PrefabParentObject: {fileID: 0}
  m_PrefabInternal: {fileID: 0}
  m_GameObject: {fileID: 1004511277}
  m_Enabled: 1
  m_CastShadows: 1
  m_ReceiveShadows: 1
  m_Materials:
  - {fileID: 10303, guid: 0000000000000000f000000000000000, type: 0}
  m_SubsetIndices: 
  m_StaticBatchRoot: {fileID: 0}
  m_UseLightProbes: 1
  m_ReflectionProbeUsage: 1
  m_ProbeAnchor: {fileID: 0}
  m_ScaleInLightmap: 1
  m_PreserveUVs: 1
  m_ImportantGI: 0
  m_AutoUVMaxDistance: .5
  m_AutoUVMaxAngle: 89
  m_LightmapParameters: {fileID: 0}
  m_SortingLayerID: 0
  m_SortingOrder: 0
--- !u!65 &1004511279
BoxCollider:
  m_ObjectHideFlags: 0
  m_PrefabParentObject: {fileID: 0}
  m_PrefabInternal: {fileID: 0}
  m_GameObject: {fileID: 1004511277}
  m_Material: {fileID: 0}
  m_IsTrigger: 0
  m_Enabled: 1
  serializedVersion: 2
  m_Size: {x: 1, y: 1, z: 1}
  m_Center: {x: 0, y: 0, z: 0}
--- !u!33 &1004511280
MeshFilter:
  m_ObjectHideFlags: 0
  m_PrefabParentObject: {fileID: 0}
  m_PrefabInternal: {fileID: 0}
  m_GameObject: {fileID: 1004511277}
  m_Mesh: {fileID: 10202, guid: 0000000000000000e000000000000000, type: 0}
--- !u!4 &1004511281
Transform:
  m_ObjectHideFlags: 0
  m_PrefabParentObject: {fileID: 0}
  m_PrefabInternal: {fileID: 0}
  m_GameObject: {fileID: 1004511277}
  m_LocalRotation: {x: 0, y: 0, z: 0, w: 1}
  m_LocalPosition: {x: 0, y: 0, z: 0}
  m_LocalScale: {x: 30.5783615, y: 1, z: 1}
  m_Children: []
  m_Father: {fileID: 0}
  m_RootOrder: 1
--- !u!1001 &1452315091
Prefab:
  m_ObjectHideFlags: 0
  serializedVersion: 2
  m_Modification:
    m_TransformParent: {fileID: 0}
    m_Modifications:
    - target: {fileID: 447592, guid: 61a3216414bd94950b553cc2b2ef1c1e, type: 2}
      propertyPath: m_LocalPosition.x
      value: 4.96999979
      objectReference: {fileID: 0}
    - target: {fileID: 447592, guid: 61a3216414bd94950b553cc2b2ef1c1e, type: 2}
      propertyPath: m_LocalPosition.y
      value: 6.30000019
      objectReference: {fileID: 0}
    - target: {fileID: 447592, guid: 61a3216414bd94950b553cc2b2ef1c1e, type: 2}
      propertyPath: m_LocalPosition.z
      value: 0
      objectReference: {fileID: 0}
    - target: {fileID: 447592, guid: 61a3216414bd94950b553cc2b2ef1c1e, type: 2}
      propertyPath: m_LocalRotation.x
      value: 0
      objectReference: {fileID: 0}
    - target: {fileID: 447592, guid: 61a3216414bd94950b553cc2b2ef1c1e, type: 2}
      propertyPath: m_LocalRotation.y
      value: 0
      objectReference: {fileID: 0}
    - target: {fileID: 447592, guid: 61a3216414bd94950b553cc2b2ef1c1e, type: 2}
      propertyPath: m_LocalRotation.z
      value: 0
      objectReference: {fileID: 0}
    - target: {fileID: 447592, guid: 61a3216414bd94950b553cc2b2ef1c1e, type: 2}
      propertyPath: m_LocalRotation.w
      value: 1
      objectReference: {fileID: 0}
    - target: {fileID: 447592, guid: 61a3216414bd94950b553cc2b2ef1c1e, type: 2}
      propertyPath: m_RootOrder
      value: 2
      objectReference: {fileID: 0}
    m_RemovedComponents: []
  m_ParentPrefab: {fileID: 100100000, guid: 61a3216414bd94950b553cc2b2ef1c1e, type: 2}
  m_IsPrefabParent: 0
--- !u!1001 &1727047601
Prefab:
  m_ObjectHideFlags: 0
  serializedVersion: 2
  m_Modification:
    m_TransformParent: {fileID: 0}
    m_Modifications:
    - target: {fileID: 418822, guid: e20c515d7f20844248e21814db18c6b7, type: 2}
      propertyPath: m_LocalPosition.x
      value: 2.1500001
      objectReference: {fileID: 0}
    - target: {fileID: 418822, guid: e20c515d7f20844248e21814db18c6b7, type: 2}
      propertyPath: m_LocalPosition.y
      value: 1
      objectReference: {fileID: 0}
    - target: {fileID: 418822, guid: e20c515d7f20844248e21814db18c6b7, type: 2}
      propertyPath: m_LocalPosition.z
      value: -5.9605e-08
      objectReference: {fileID: 0}
    - target: {fileID: 418822, guid: e20c515d7f20844248e21814db18c6b7, type: 2}
      propertyPath: m_LocalRotation.x
      value: 0
      objectReference: {fileID: 0}
    - target: {fileID: 418822, guid: e20c515d7f20844248e21814db18c6b7, type: 2}
      propertyPath: m_LocalRotation.y
      value: 0
      objectReference: {fileID: 0}
    - target: {fileID: 418822, guid: e20c515d7f20844248e21814db18c6b7, type: 2}
      propertyPath: m_LocalRotation.z
      value: 0
      objectReference: {fileID: 0}
    - target: {fileID: 418822, guid: e20c515d7f20844248e21814db18c6b7, type: 2}
      propertyPath: m_LocalRotation.w
      value: 1
      objectReference: {fileID: 0}
    - target: {fileID: 418822, guid: e20c515d7f20844248e21814db18c6b7, type: 2}
      propertyPath: m_RootOrder
      value: 3
      objectReference: {fileID: 0}
    m_RemovedComponents: []
  m_ParentPrefab: {fileID: 100100000, guid: e20c515d7f20844248e21814db18c6b7, type: 2}
  m_IsPrefabParent: 0
--- !u!1001 &1748134550
Prefab:
  m_ObjectHideFlags: 0
  serializedVersion: 2
  m_Modification:
    m_TransformParent: {fileID: 0}
    m_Modifications:
    - target: {fileID: 457964, guid: b6078b5ffdca34ca7897547f76e057d3, type: 2}
      propertyPath: m_LocalPosition.x
      value: -3.11879992
      objectReference: {fileID: 0}
    - target: {fileID: 457964, guid: b6078b5ffdca34ca7897547f76e057d3, type: 2}
      propertyPath: m_LocalPosition.y
      value: 1
      objectReference: {fileID: 0}
    - target: {fileID: 457964, guid: b6078b5ffdca34ca7897547f76e057d3, type: 2}
      propertyPath: m_LocalPosition.z
      value: 0
      objectReference: {fileID: 0}
    - target: {fileID: 457964, guid: b6078b5ffdca34ca7897547f76e057d3, type: 2}
      propertyPath: m_LocalRotation.x
      value: 0
      objectReference: {fileID: 0}
    - target: {fileID: 457964, guid: b6078b5ffdca34ca7897547f76e057d3, type: 2}
      propertyPath: m_LocalRotation.y
      value: 0
      objectReference: {fileID: 0}
    - target: {fileID: 457964, guid: b6078b5ffdca34ca7897547f76e057d3, type: 2}
      propertyPath: m_LocalRotation.z
      value: 0
      objectReference: {fileID: 0}
    - target: {fileID: 457964, guid: b6078b5ffdca34ca7897547f76e057d3, type: 2}
      propertyPath: m_LocalRotation.w
      value: 1
      objectReference: {fileID: 0}
    - target: {fileID: 457964, guid: b6078b5ffdca34ca7897547f76e057d3, type: 2}
      propertyPath: m_RootOrder
      value: 0
      objectReference: {fileID: 0}
    - target: {fileID: 11434578, guid: b6078b5ffdca34ca7897547f76e057d3, type: 2}
      propertyPath: jumpSpeed
      value: 200
      objectReference: {fileID: 0}
    - target: {fileID: 11434578, guid: b6078b5ffdca34ca7897547f76e057d3, type: 2}
      propertyPath: secondJumpSpeed
      value: 150
      objectReference: {fileID: 0}
    - target: {fileID: 11434578, guid: b6078b5ffdca34ca7897547f76e057d3, type: 2}
      propertyPath: runSpeed
      value: 7
      objectReference: {fileID: 0}
    - target: {fileID: 11434578, guid: b6078b5ffdca34ca7897547f76e057d3, type: 2}
      propertyPath: regularSpeed
      value: 3
      objectReference: {fileID: 0}
    - target: {fileID: 11434578, guid: b6078b5ffdca34ca7897547f76e057d3, type: 2}
      propertyPath: crouchSpeed
      value: 1
      objectReference: {fileID: 0}
    - target: {fileID: 11434578, guid: b6078b5ffdca34ca7897547f76e057d3, type: 2}
      propertyPath: slideSpeed
      value: 450
      objectReference: {fileID: 0}
    - target: {fileID: 2091898, guid: b6078b5ffdca34ca7897547f76e057d3, type: 2}
      propertyPath: far clip plane
      value: 1000
      objectReference: {fileID: 0}
    - target: {fileID: 456028, guid: b6078b5ffdca34ca7897547f76e057d3, type: 2}
      propertyPath: m_LocalPosition.z
      value: -24.2999992
      objectReference: {fileID: 0}
    - target: {fileID: 2091898, guid: b6078b5ffdca34ca7897547f76e057d3, type: 2}
      propertyPath: orthographic
      value: 1
      objectReference: {fileID: 0}
    - target: {fileID: 2091898, guid: b6078b5ffdca34ca7897547f76e057d3, type: 2}
      propertyPath: orthographic size
      value: 10
      objectReference: {fileID: 0}
    - target: {fileID: 11434578, guid: b6078b5ffdca34ca7897547f76e057d3, type: 2}
      propertyPath: slideDuration
      value: .600000024
      objectReference: {fileID: 0}
    m_RemovedComponents: []
  m_ParentPrefab: {fileID: 100100000, guid: b6078b5ffdca34ca7897547f76e057d3, type: 2}
  m_IsPrefabParent: 0
